<?xml version="1.0" encoding="utf-8"?>
<!-- Generator: Adobe Illustrator 16.0.0, SVG Export Plug-In . SVG Version: 6.00 Build 0)  -->
<!DOCTYPE svg PUBLIC "-//W3C//DTD SVG 1.1//EN" "http://www.w3.org/Graphics/SVG/1.1/DTD/svg11.dtd">
<svg version="1.1" id="Warstwa_1" xmlns="http://www.w3.org/2000/svg" xmlns:xlink="http://www.w3.org/1999/xlink" x="0px" y="0px"
	 width="50px" height="50px" viewBox="0 0 50 50" enable-background="new 0 0 50 50" xml:space="preserve">
<g id="Prostokąt_65_kopia_1_" enable-background="new    ">
	<polygon fill="#408E42" points="36,15.023 34.976,14 25,23.978 15.023,14 14,15.023 23.977,25 14,34.977 15.023,36 25,26.023 
		34.976,36 36,34.977 26.023,25 	"/>
</g>
<g id="Prostokąt_65_kopia_2_1_" enable-background="new    ">
</g>
<g>
	<path fill="#408E42" d="M25,1c13.234,0,24,10.767,24,24S38.234,49,25,49S1,38.233,1,25S11.766,1,25,1 M25,0C11.193,0,0,11.193,0,25
		s11.193,25,25,25s25-11.193,25-25S38.807,0,25,0L25,0z"/>
</g>
</svg>
